sim.log
[2026-03-18 20:41:21 UTC] qrun -batch -access=rw+/. -uvmhome uvm-1.2 '-timescale' '1ns/1ns' -mfcu design.sv testbench.sv '-voptargs=+acc=npr' '+cover' '+fcover' '-coverage' '-do' 'run.do'  -do  " run -all; exit"  
QuestaSim-64 qrun 2025.2 Utility 2025.05 May 31 2025
Start time: 16:41:22 on Mar 18,2026
qrun -batch -access=rw+/. -uvmhome uvm-1.2 -timescale 1ns/1ns -mfcu design.sv testbench.sv -voptargs="+acc=npr" "+cover" "+fcover" -coverage -do "run.do" -do " run -all; exit" 
** Note: (qrun-220) 'modelsim.ini' is used as the ini file.
Creating library 'qrun.out/work'.
Mapping library 'mtiUvm' to 'qrun.out/work'.
** Note: (vmap-220) 'modelsim.ini' is used as the ini file.
QuestaSim-64 vlog 2025.2 Compiler 2025.05 May 31 2025
Start time: 16:41:22 on Mar 18,2026
vlog -timescale 1ns/1ns -mfcu -ccflags "-Wno-missing-declarations" -ccflags "-Wno-maybe-uninitialized" -ccflags "-Wno-return-type" -ccflags "-DQUESTA" /usr/share/questa/questasim/verilog_src/uvm-1.2/src/dpi/uvm_dpi.cc /usr/share/questa/questasim/verilog_src/uvm-1.2/src/uvm_pkg.sv /usr/share/questa/questasim/verilog_src/questa_uvm_pkg-1.2/src/questa_uvm_pkg.sv design.sv testbench.sv -work qrun.out/work "+incdir+/usr/share/questa/questasim/verilog_src/uvm-1.2/src" -statslog qrun.out/stats_log -csession=incr 
** Note: (vlog-220) 'modelsim.ini' is used as the ini file.
-- Compiling package uvm_pkg (uvm-1.2 Built-in)
-- Compiling package questa_uvm_pkg
-- Importing package uvm_pkg (uvm-1.2 Built-in)
-- Compiling module sync_fifo
-- Compiling package uvm_pkg_sv_unit
-- Importing package uvm_pkg (uvm-1.2 Built-in)
-- Compiling interface fifo_if
-- Compiling module fifo_tb_top

Top level modules:
	fifo_tb_top
** Note: (vlog-7082) For C/C++ auto compile, choosing compiler /usr/bin/g++ set from the PATH environment variable.
-- Compiling DPI/PLI C++ file /usr/share/questa/questasim/verilog_src/uvm-1.2/src/dpi/uvm_dpi.cc
End time: 16:41:24 on Mar 18,2026, Elapsed time: 0:00:02
Errors: 0, Warnings: 0
QuestaSim-64 vopt 2025.2 Compiler 2025.05 May 31 2025
** Warning: (vopt-10587) Some optimizations are turned off because the +acc switch is in effect. This will cause your simulation to run slowly. Please use -access/-debug to maintain needed visibility. The +acc switch would be deprecated in a future release.
Start time: 16:41:24 on Mar 18,2026
vopt -access=rw+/. -timescale 1ns/1ns -mfcu "+cover" "+acc=npr" -findtoplevels qrun.out/work+2+ -work qrun.out/work -statslog qrun.out/stats_log -csession=incr -o qrun_opt -csessionid=3 
** Note: (vopt-220) 'modelsim.ini' is used as the ini file.

Top level modules:
	fifo_tb_top

Analyzing design...
-- Loading module fifo_tb_top
-- Loading package questa_uvm_pkg
-- Loading interface fifo_if
-- Loading module sync_fifo
** Warning: (vopt-13408) Code coverage will be disabled for some DUs/packages/classes and source files.
Optimizing 7 design-units (inlining 0/3 module instances):
-- Optimizing package uvm_pkg (uvm-1.2 Built-in)(fast)
-- Optimizing package questa_uvm_pkg(fast)
-- Optimizing package uvm_pkg_sv_unit(fast)
-- Optimizing interface fifo_if(fast__2)
-- Optimizing module fifo_tb_top(fast)
-- Optimizing module sync_fifo(fast)
-- Optimizing interface fifo_if(fast)
Optimized design name is qrun_opt
End time: 16:41:29 on Mar 18,2026, Elapsed time: 0:00:05
Errors: 0, Warnings: 2
# ** Note: (vsim-220) 'modelsim.ini' is used as the ini file.
# vsim -batch "+fcover" -lib qrun.out/work -coverage -do "coverage save -onexit cov_$Sv_Seed.ucdb" -do "run.do" -do " run -all; exit" -statslog qrun.out/stats_log qrun_opt -appendlog -l qrun.log 
# Start time: 16:41:29 on Mar 18,2026
# Loading /tmp/root@0bc02a9ac63e_dpi_34/linux_x86_64_gcc-11/export_tramp.so
# //  Questa Sim-64
# //  Version 2025.2 linux_x86_64 May 31 2025
# //
# // Unpublished work. Copyright 2025 Siemens
# //
# // This material contains trade secrets or otherwise confidential information
# // owned by Siemens Industry Software Inc. or its affiliates (collectively,
# // "SISW"), or its licensors. Access to and use of this information is strictly
# // limited as set forth in the Customer's applicable agreements with SISW.
# //
# // This material may not be copied, distributed, or otherwise disclosed outside
# // of the Customer's facilities without the express written permission of SISW,
# // and may not be used in any way not expressly authorized by SISW.
# //
# Loading sv_std.std
# Loading work.fifo_if(fast)
# Loading work.uvm_pkg(fast)
# Loading work.uvm_pkg_sv_unit(fast)
# Loading work.questa_uvm_pkg(fast)
# Loading work.fifo_tb_top(fast)
# Loading work.fifo_if(fast__2)
# Loading work.sync_fifo(fast)
# ** Note: (vsim-7082) For C/C++ auto compile, choosing compiler /usr/bin/g++ set from the PATH environment variable.
# Compiling /tmp/root@0bc02a9ac63e_dpi_34/linux_x86_64_gcc-11/exportwrapper.c
# Loading /tmp/root@0bc02a9ac63e_dpi_34/linux_x86_64_gcc-11/vsim_auto_compile.so
# 
# coverage save -onexit cov_$Sv_Seed.ucdb
# do run.do
# UVM_INFO /usr/share/questa/questasim/verilog_src/uvm-1.2/src/base/uvm_root.svh(392) @ 0: reporter [UVM/RELNOTES] 
# ----------------------------------------------------------------
# UVM-1.2
# (C) 2007-2014 Mentor Graphics Corporation
# (C) 2007-2014 Cadence Design Systems, Inc.
# (C) 2006-2014 Synopsys, Inc.
# (C) 2011-2013 Cypress Semiconductor Corp.
# (C) 2013-2014 NVIDIA Corporation
# ----------------------------------------------------------------
# 
#   ***********       IMPORTANT RELEASE NOTES         ************
# 
#   You are using a version of the UVM library that has been compiled
#   with `UVM_NO_DEPRECATED undefined.
#   See http://www.eda.org/svdb/view.php?id=3313 for more details.
# 
#   You are using a version of the UVM library that has been compiled
#   with `UVM_OBJECT_DO_NOT_NEED_CONSTRUCTOR undefined.
#   See http://www.eda.org/svdb/view.php?id=3770 for more details.
# 
#       (Specify +UVM_NO_RELNOTES to turn off this notice)
# 
# UVM_INFO /usr/share/questa/questasim/verilog_src/questa_uvm_pkg-1.2/src/questa_uvm_pkg.sv(277) @ 0: reporter [Questa UVM] QUESTA_UVM-1.2.3
# UVM_INFO /usr/share/questa/questasim/verilog_src/questa_uvm_pkg-1.2/src/questa_uvm_pkg.sv(278) @ 0: reporter [Questa UVM]  questa_uvm::init(+struct)
# UVM_INFO @ 0: reporter [RNTST] Running test fifo_base_test...
# UVM_INFO /usr/share/questa/questasim/verilog_src/uvm-1.2/src/base/uvm_root.svh(579) @ 0: reporter [UVMTOP] UVM testbench topology:
# --------------------------------------------------------------
# Name                       Type                    Size  Value
# --------------------------------------------------------------
# uvm_test_top               fifo_base_test          -     @369 
#   env                      fifo_env                -     @381 
#     agent                  fifo_agent              -     @389 
#       coverage             fifo_coverage           -     @589 
#         analysis_imp       uvm_analysis_imp        -     @597 
#       drv                  fifo_driver             -     @529 
#         rsp_port           uvm_analysis_port       -     @546 
#         seq_item_port      uvm_seq_item_pull_port  -     @537 
#       rd_mon               fifo_read_monitor       -     @563 
#         ap                 uvm_analysis_port       -     @607 
#       read_ap              uvm_analysis_port       -     @580 
#       sqr                  fifo_sequencer          -     @406 
#         rsp_export         uvm_analysis_export     -     @414 
#         seq_item_export    uvm_seq_item_pull_imp   -     @520 
#         arbitration_queue  array                   0     -    
#         lock_queue         array                   0     -    
#         num_last_reqs      integral                32    'd1  
#         num_last_rsps      integral                32    'd1  
#       wr_mon               fifo_write_monitor      -     @555 
#         ap                 uvm_analysis_port       -     @622 
#       write_ap             uvm_analysis_port       -     @571 
#     scoreboard             fifo_scoreboard         -     @397 
#       rd_imp               uvm_analysis_imp_rd     -     @641 
#       wr_imp               uvm_analysis_imp_wr     -     @632 
# --------------------------------------------------------------
# 
# UVM_INFO fifo_base_test.sv(29) @ 0: uvm_test_top [fifo_base_test] Starting fifo_base_sequence
# UVM_INFO fifo_coverage.sv(50) @ 5000: uvm_test_top.env.agent.coverage [COV_SAMPLE] Sampling txn: wr_en=0 rd_en=0 full=0 empty=1
# UVM_INFO fifo_write_monitor.sv(37) @ 5000: uvm_test_top.env.agent.wr_mon [WRITE_MON] Write observed: 0
# UVM_INFO fifo_coverage.sv(50) @ 15000: uvm_test_top.env.agent.coverage [COV_SAMPLE] Sampling txn: wr_en=1 rd_en=0 full=0 empty=1
# UVM_INFO fifo_write_monitor.sv(37) @ 15000: uvm_test_top.env.agent.wr_mon [WRITE_MON] Write observed: 1e
# UVM_INFO fifo_coverage.sv(50) @ 15000: uvm_test_top.env.agent.coverage [COV_SAMPLE] Sampling txn: wr_en=0 rd_en=0 full=0 empty=1
# UVM_INFO fifo_read_monitor.sv(47) @ 15000: uvm_test_top.env.agent.rd_mon [READ_MON] Read observed: 0
# UVM_INFO fifo_coverage.sv(50) @ 25000: uvm_test_top.env.agent.coverage [COV_SAMPLE] Sampling txn: wr_en=0 rd_en=0 full=0 empty=0
# UVM_INFO fifo_write_monitor.sv(37) @ 25000: uvm_test_top.env.agent.wr_mon [WRITE_MON] Write observed: 1e
# UVM_INFO fifo_coverage.sv(50) @ 35000: uvm_test_top.env.agent.coverage [COV_SAMPLE] Sampling txn: wr_en=1 rd_en=0 full=0 empty=0
# UVM_INFO fifo_write_monitor.sv(37) @ 35000: uvm_test_top.env.agent.wr_mon [WRITE_MON] Write observed: 88
# UVM_INFO fifo_coverage.sv(50) @ 35000: uvm_test_top.env.agent.coverage [COV_SAMPLE] Sampling txn: wr_en=0 rd_en=0 full=0 empty=0
# UVM_INFO fifo_read_monitor.sv(47) @ 35000: uvm_test_top.env.agent.rd_mon [READ_MON] Read observed: 0
# UVM_INFO fifo_coverage.sv(50) @ 45000: uvm_test_top.env.agent.coverage [COV_SAMPLE] Sampling txn: wr_en=0 rd_en=0 full=0 empty=0
# UVM_INFO fifo_write_monitor.sv(37) @ 45000: uvm_test_top.env.agent.wr_mon [WRITE_MON] Write observed: 88
# UVM_INFO fifo_coverage.sv(50) @ 55000: uvm_test_top.env.agent.coverage [COV_SAMPLE] Sampling txn: wr_en=1 rd_en=0 full=0 empty=0
# UVM_INFO fifo_write_monitor.sv(37) @ 55000: uvm_test_top.env.agent.wr_mon [WRITE_MON] Write observed: 9
# UVM_INFO fifo_coverage.sv(50) @ 55000: uvm_test_top.env.agent.coverage [COV_SAMPLE] Sampling txn: wr_en=0 rd_en=0 full=0 empty=0
# UVM_INFO fifo_read_monitor.sv(47) @ 55000: uvm_test_top.env.agent.rd_mon [READ_MON] Read observed: 0
# UVM_INFO fifo_coverage.sv(50) @ 65000: uvm_test_top.env.agent.coverage [COV_SAMPLE] Sampling txn: wr_en=0 rd_en=0 full=0 empty=0
# UVM_INFO fifo_write_monitor.sv(37) @ 65000: uvm_test_top.env.agent.wr_mon [WRITE_MON] Write observed: 9
# UVM_INFO fifo_coverage.sv(50) @ 75000: uvm_test_top.env.agent.coverage [COV_SAMPLE] Sampling txn: wr_en=1 rd_en=0 full=0 empty=0
# UVM_INFO fifo_write_monitor.sv(37) @ 75000: uvm_test_top.env.agent.wr_mon [WRITE_MON] Write observed: 3
# UVM_INFO fifo_coverage.sv(50) @ 75000: uvm_test_top.env.agent.coverage [COV_SAMPLE] Sampling txn: wr_en=0 rd_en=0 full=0 empty=0
# UVM_INFO fifo_read_monitor.sv(47) @ 75000: uvm_test_top.env.agent.rd_mon [READ_MON] Read observed: 0
# UVM_INFO fifo_coverage.sv(50) @ 85000: uvm_test_top.env.agent.coverage [COV_SAMPLE] Sampling txn: wr_en=0 rd_en=0 full=0 empty=0
# UVM_INFO fifo_write_monitor.sv(37) @ 85000: uvm_test_top.env.agent.wr_mon [WRITE_MON] Write observed: 3
# UVM_INFO fifo_coverage.sv(50) @ 95000: uvm_test_top.env.agent.coverage [COV_SAMPLE] Sampling txn: wr_en=1 rd_en=0 full=0 empty=0
# UVM_INFO fifo_write_monitor.sv(37) @ 95000: uvm_test_top.env.agent.wr_mon [WRITE_MON] Write observed: 1a
# UVM_INFO fifo_coverage.sv(50) @ 95000: uvm_test_top.env.agent.coverage [COV_SAMPLE] Sampling txn: wr_en=0 rd_en=0 full=0 empty=0
# UVM_INFO fifo_read_monitor.sv(47) @ 95000: uvm_test_top.env.agent.rd_mon [READ_MON] Read observed: 0
# UVM_INFO fifo_coverage.sv(50) @ 105000: uvm_test_top.env.agent.coverage [COV_SAMPLE] Sampling txn: wr_en=0 rd_en=0 full=0 empty=0
# UVM_INFO fifo_write_monitor.sv(37) @ 105000: uvm_test_top.env.agent.wr_mon [WRITE_MON] Write observed: 1a
# UVM_INFO fifo_coverage.sv(50) @ 115000: uvm_test_top.env.agent.coverage [COV_SAMPLE] Sampling txn: wr_en=1 rd_en=0 full=0 empty=0
# UVM_INFO fifo_write_monitor.sv(37) @ 115000: uvm_test_top.env.agent.wr_mon [WRITE_MON] Write observed: 61
# UVM_INFO fifo_coverage.sv(50) @ 115000: uvm_test_top.env.agent.coverage [COV_SAMPLE] Sampling txn: wr_en=0 rd_en=0 full=0 empty=0
# UVM_INFO fifo_read_monitor.sv(47) @ 115000: uvm_test_top.env.agent.rd_mon [READ_MON] Read observed: 0
# UVM_INFO fifo_coverage.sv(50) @ 125000: uvm_test_top.env.agent.coverage [COV_SAMPLE] Sampling txn: wr_en=0 rd_en=0 full=0 empty=0
# UVM_INFO fifo_write_monitor.sv(37) @ 125000: uvm_test_top.env.agent.wr_mon [WRITE_MON] Write observed: 61
# UVM_INFO fifo_coverage.sv(50) @ 135000: uvm_test_top.env.agent.coverage [COV_SAMPLE] Sampling txn: wr_en=1 rd_en=0 full=0 empty=0
# UVM_INFO fifo_write_monitor.sv(37) @ 135000: uvm_test_top.env.agent.wr_mon [WRITE_MON] Write observed: 15
# UVM_INFO fifo_coverage.sv(50) @ 135000: uvm_test_top.env.agent.coverage [COV_SAMPLE] Sampling txn: wr_en=0 rd_en=0 full=0 empty=0
# UVM_INFO fifo_read_monitor.sv(47) @ 135000: uvm_test_top.env.agent.rd_mon [READ_MON] Read observed: 0
# UVM_INFO fifo_coverage.sv(50) @ 145000: uvm_test_top.env.agent.coverage [COV_SAMPLE] Sampling txn: wr_en=0 rd_en=0 full=0 empty=0
# UVM_INFO fifo_write_monitor.sv(37) @ 145000: uvm_test_top.env.agent.wr_mon [WRITE_MON] Write observed: 15
# UVM_INFO fifo_coverage.sv(50) @ 155000: uvm_test_top.env.agent.coverage [COV_SAMPLE] Sampling txn: wr_en=1 rd_en=0 full=0 empty=0
# UVM_INFO fifo_write_monitor.sv(37) @ 155000: uvm_test_top.env.agent.wr_mon [WRITE_MON] Write observed: 62
# UVM_INFO fifo_coverage.sv(50) @ 155000: uvm_test_top.env.agent.coverage [COV_SAMPLE] Sampling txn: wr_en=0 rd_en=0 full=0 empty=0
# UVM_INFO fifo_read_monitor.sv(47) @ 155000: uvm_test_top.env.agent.rd_mon [READ_MON] Read observed: 0
# UVM_INFO fifo_base_sequence.sv(31) @ 155000: uvm_test_top.env.agent.sqr@@seq [SEQ] Generated item: wr_en=1 wr_data=b0 rd_en=0
# UVM_INFO fifo_coverage.sv(50) @ 165000: uvm_test_top.env.agent.coverage [COV_SAMPLE] Sampling txn: wr_en=0 rd_en=0 full=0 empty=0
# UVM_INFO fifo_write_monitor.sv(37) @ 165000: uvm_test_top.env.agent.wr_mon [WRITE_MON] Write observed: 62
# UVM_INFO fifo_coverage.sv(50) @ 175000: uvm_test_top.env.agent.coverage [COV_SAMPLE] Sampling txn: wr_en=1 rd_en=0 full=0 empty=0
# UVM_INFO fifo_write_monitor.sv(37) @ 175000: uvm_test_top.env.agent.wr_mon [WRITE_MON] Write observed: b0
# UVM_INFO fifo_coverage.sv(50) @ 175000: uvm_test_top.env.agent.coverage [COV_SAMPLE] Sampling txn: wr_en=0 rd_en=0 full=0 empty=0
# UVM_INFO fifo_read_monitor.sv(47) @ 175000: uvm_test_top.env.agent.rd_mon [READ_MON] Read observed: 0
# UVM_INFO fifo_base_sequence.sv(31) @ 175000: uvm_test_top.env.agent.sqr@@seq [SEQ] Generated item: wr_en=1 wr_data=2a rd_en=0
# UVM_INFO fifo_coverage.sv(50) @ 185000: uvm_test_top.env.agent.coverage [COV_SAMPLE] Sampling txn: wr_en=0 rd_en=0 full=0 empty=0
# UVM_INFO fifo_write_monitor.sv(37) @ 185000: uvm_test_top.env.agent.wr_mon [WRITE_MON] Write observed: b0
# UVM_INFO fifo_coverage.sv(50) @ 195000: uvm_test_top.env.agent.coverage [COV_SAMPLE] Sampling txn: wr_en=1 rd_en=0 full=0 empty=0
# UVM_INFO fifo_write_monitor.sv(37) @ 195000: uvm_test_top.env.agent.wr_mon [WRITE_MON] Write observed: 2a
# UVM_INFO fifo_coverage.sv(50) @ 195000: uvm_test_top.env.agent.coverage [COV_SAMPLE] Sampling txn: wr_en=0 rd_en=0 full=0 empty=0
# UVM_INFO fifo_read_monitor.sv(47) @ 195000: uvm_test_top.env.agent.rd_mon [READ_MON] Read observed: 0
# UVM_INFO fifo_base_sequence.sv(31) @ 195000: uvm_test_top.env.agent.sqr@@seq [SEQ] Generated item: wr_en=1 wr_data=19 rd_en=0
# UVM_INFO fifo_coverage.sv(50) @ 205000: uvm_test_top.env.agent.coverage [COV_SAMPLE] Sampling txn: wr_en=0 rd_en=0 full=0 empty=0
# UVM_INFO fifo_write_monitor.sv(37) @ 205000: uvm_test_top.env.agent.wr_mon [WRITE_MON] Write observed: 2a
# UVM_INFO fifo_coverage.sv(50) @ 215000: uvm_test_top.env.agent.coverage [COV_SAMPLE] Sampling txn: wr_en=1 rd_en=0 full=0 empty=0
# UVM_INFO fifo_write_monitor.sv(37) @ 215000: uvm_test_top.env.agent.wr_mon [WRITE_MON] Write observed: 19
# UVM_INFO fifo_coverage.sv(50) @ 215000: uvm_test_top.env.agent.coverage [COV_SAMPLE] Sampling txn: wr_en=0 rd_en=0 full=0 empty=0
# UVM_INFO fifo_read_monitor.sv(47) @ 215000: uvm_test_top.env.agent.rd_mon [READ_MON] Read observed: 0
# UVM_INFO fifo_base_sequence.sv(31) @ 215000: uvm_test_top.env.agent.sqr@@seq [SEQ] Generated item: wr_en=0 wr_data=76 rd_en=1
# UVM_INFO fifo_coverage.sv(50) @ 225000: uvm_test_top.env.agent.coverage [COV_SAMPLE] Sampling txn: wr_en=0 rd_en=0 full=0 empty=0
# UVM_INFO fifo_write_monitor.sv(37) @ 225000: uvm_test_top.env.agent.wr_mon [WRITE_MON] Write observed: 19
# UVM_INFO fifo_coverage.sv(50) @ 235000: uvm_test_top.env.agent.coverage [COV_SAMPLE] Sampling txn: wr_en=0 rd_en=1 full=0 empty=0
# UVM_INFO fifo_write_monitor.sv(37) @ 235000: uvm_test_top.env.agent.wr_mon [WRITE_MON] Write observed: 76
# UVM_INFO fifo_coverage.sv(50) @ 235000: uvm_test_top.env.agent.coverage [COV_SAMPLE] Sampling txn: wr_en=0 rd_en=0 full=0 empty=0
# UVM_INFO fifo_read_monitor.sv(47) @ 235000: uvm_test_top.env.agent.rd_mon [READ_MON] Read observed: 0
# UVM_INFO fifo_base_sequence.sv(31) @ 235000: uvm_test_top.env.agent.sqr@@seq [SEQ] Generated item: wr_en=1 wr_data=b1 rd_en=0
# UVM_INFO fifo_coverage.sv(50) @ 245000: uvm_test_top.env.agent.coverage [COV_SAMPLE] Sampling txn: wr_en=0 rd_en=0 full=0 empty=0
# UVM_INFO fifo_write_monitor.sv(37) @ 245000: uvm_test_top.env.agent.wr_mon [WRITE_MON] Write observed: 76
# UVM_INFO fifo_coverage.sv(50) @ 255000: uvm_test_top.env.agent.coverage [COV_SAMPLE] Sampling txn: wr_en=1 rd_en=0 full=0 empty=0
# UVM_INFO fifo_write_monitor.sv(37) @ 255000: uvm_test_top.env.agent.wr_mon [WRITE_MON] Write observed: b1
# UVM_INFO fifo_coverage.sv(50) @ 255000: uvm_test_top.env.agent.coverage [COV_SAMPLE] Sampling txn: wr_en=0 rd_en=0 full=0 empty=0
# UVM_INFO fifo_read_monitor.sv(47) @ 255000: uvm_test_top.env.agent.rd_mon [READ_MON] Read observed: 1e
# UVM_INFO fifo_base_sequence.sv(31) @ 255000: uvm_test_top.env.agent.sqr@@seq [SEQ] Generated item: wr_en=1 wr_data=75 rd_en=0
# UVM_INFO fifo_coverage.sv(50) @ 265000: uvm_test_top.env.agent.coverage [COV_SAMPLE] Sampling txn: wr_en=0 rd_en=0 full=0 empty=0
# UVM_INFO fifo_write_monitor.sv(37) @ 265000: uvm_test_top.env.agent.wr_mon [WRITE_MON] Write observed: b1
# UVM_INFO fifo_coverage.sv(50) @ 275000: uvm_test_top.env.agent.coverage [COV_SAMPLE] Sampling txn: wr_en=1 rd_en=0 full=0 empty=0
# UVM_INFO fifo_write_monitor.sv(37) @ 275000: uvm_test_top.env.agent.wr_mon [WRITE_MON] Write observed: 75
# UVM_INFO fifo_coverage.sv(50) @ 275000: uvm_test_top.env.agent.coverage [COV_SAMPLE] Sampling txn: wr_en=0 rd_en=0 full=0 empty=0
# UVM_INFO fifo_read_monitor.sv(47) @ 275000: uvm_test_top.env.agent.rd_mon [READ_MON] Read observed: 1e
# UVM_INFO fifo_base_sequence.sv(31) @ 275000: uvm_test_top.env.agent.sqr@@seq [SEQ] Generated item: wr_en=1 wr_data=2d rd_en=0
# UVM_INFO fifo_coverage.sv(50) @ 285000: uvm_test_top.env.agent.coverage [COV_SAMPLE] Sampling txn: wr_en=0 rd_en=0 full=0 empty=0
# UVM_INFO fifo_write_monitor.sv(37) @ 285000: uvm_test_top.env.agent.wr_mon [WRITE_MON] Write observed: 75
# UVM_INFO fifo_coverage.sv(50) @ 295000: uvm_test_top.env.agent.coverage [COV_SAMPLE] Sampling txn: wr_en=1 rd_en=0 full=0 empty=0
# UVM_INFO fifo_write_monitor.sv(37) @ 295000: uvm_test_top.env.agent.wr_mon [WRITE_MON] Write observed: 2d
# UVM_INFO fifo_coverage.sv(50) @ 295000: uvm_test_top.env.agent.coverage [COV_SAMPLE] Sampling txn: wr_en=0 rd_en=0 full=0 empty=0
# UVM_INFO fifo_read_monitor.sv(47) @ 295000: uvm_test_top.env.agent.rd_mon [READ_MON] Read observed: 1e
# UVM_INFO fifo_base_sequence.sv(31) @ 295000: uvm_test_top.env.agent.sqr@@seq [SEQ] Generated item: wr_en=0 wr_data=bb rd_en=0
# UVM_INFO fifo_coverage.sv(50) @ 305000: uvm_test_top.env.agent.coverage [COV_SAMPLE] Sampling txn: wr_en=0 rd_en=0 full=0 empty=0
# UVM_INFO fifo_write_monitor.sv(37) @ 305000: uvm_test_top.env.agent.wr_mon [WRITE_MON] Write observed: 2d
# UVM_INFO fifo_coverage.sv(50) @ 315000: uvm_test_top.env.agent.coverage [COV_SAMPLE] Sampling txn: wr_en=0 rd_en=0 full=0 empty=0
# UVM_INFO fifo_write_monitor.sv(37) @ 315000: uvm_test_top.env.agent.wr_mon [WRITE_MON] Write observed: bb
# UVM_INFO fifo_coverage.sv(50) @ 315000: uvm_test_top.env.agent.coverage [COV_SAMPLE] Sampling txn: wr_en=0 rd_en=0 full=0 empty=0
# UVM_INFO fifo_read_monitor.sv(47) @ 315000: uvm_test_top.env.agent.rd_mon [READ_MON] Read observed: 1e
# UVM_INFO fifo_base_sequence.sv(31) @ 315000: uvm_test_top.env.agent.sqr@@seq [SEQ] Generated item: wr_en=1 wr_data=55 rd_en=0
# UVM_INFO fifo_coverage.sv(50) @ 325000: uvm_test_top.env.agent.coverage [COV_SAMPLE] Sampling txn: wr_en=0 rd_en=0 full=0 empty=0
# UVM_INFO fifo_write_monitor.sv(37) @ 325000: uvm_test_top.env.agent.wr_mon [WRITE_MON] Write observed: bb
# UVM_INFO fifo_coverage.sv(50) @ 335000: uvm_test_top.env.agent.coverage [COV_SAMPLE] Sampling txn: wr_en=1 rd_en=0 full=0 empty=0
# UVM_INFO fifo_write_monitor.sv(37) @ 335000: uvm_test_top.env.agent.wr_mon [WRITE_MON] Write observed: 55
# UVM_INFO fifo_coverage.sv(50) @ 335000: uvm_test_top.env.agent.coverage [COV_SAMPLE] Sampling txn: wr_en=0 rd_en=0 full=0 empty=0
# UVM_INFO fifo_read_monitor.sv(47) @ 335000: uvm_test_top.env.agent.rd_mon [READ_MON] Read observed: 1e
# UVM_INFO fifo_base_sequence.sv(31) @ 335000: uvm_test_top.env.agent.sqr@@seq [SEQ] Generated item: wr_en=1 wr_data=4e rd_en=0
# UVM_INFO fifo_coverage.sv(50) @ 345000: uvm_test_top.env.agent.coverage [COV_SAMPLE] Sampling txn: wr_en=0 rd_en=0 full=0 empty=0
# UVM_INFO fifo_write_monitor.sv(37) @ 345000: uvm_test_top.env.agent.wr_mon [WRITE_MON] Write observed: 55
# UVM_INFO fifo_coverage.sv(50) @ 355000: uvm_test_top.env.agent.coverage [COV_SAMPLE] Sampling txn: wr_en=1 rd_en=0 full=0 empty=0
# UVM_INFO fifo_write_monitor.sv(37) @ 355000: uvm_test_top.env.agent.wr_mon [WRITE_MON] Write observed: 4e
# UVM_INFO fifo_coverage.sv(50) @ 355000: uvm_test_top.env.agent.coverage [COV_SAMPLE] Sampling txn: wr_en=0 rd_en=0 full=0 empty=0
# UVM_INFO fifo_read_monitor.sv(47) @ 355000: uvm_test_top.env.agent.rd_mon [READ_MON] Read observed: 1e
# UVM_INFO fifo_base_sequence.sv(31) @ 355000: uvm_test_top.env.agent.sqr@@seq [SEQ] Generated item: wr_en=1 wr_data=28 rd_en=0
# UVM_INFO fifo_coverage.sv(50) @ 365000: uvm_test_top.env.agent.coverage [COV_SAMPLE] Sampling txn: wr_en=0 rd_en=0 full=0 empty=0
# UVM_INFO fifo_write_monitor.sv(37) @ 365000: uvm_test_top.env.agent.wr_mon [WRITE_MON] Write observed: 4e
# UVM_INFO fifo_coverage.sv(50) @ 375000: uvm_test_top.env.agent.coverage [COV_SAMPLE] Sampling txn: wr_en=1 rd_en=0 full=0 empty=0
# UVM_ERROR fifo_scoreboard.sv(39) @ 375000: uvm_test_top.env.scoreboard [MODEL_OVERFLOW] Model overflow
# UVM_INFO fifo_write_monitor.sv(37) @ 375000: uvm_test_top.env.agent.wr_mon [WRITE_MON] Write observed: 28
# UVM_INFO fifo_coverage.sv(50) @ 375000: uvm_test_top.env.agent.coverage [COV_SAMPLE] Sampling txn: wr_en=0 rd_en=0 full=0 empty=0
# UVM_INFO fifo_read_monitor.sv(47) @ 375000: uvm_test_top.env.agent.rd_mon [READ_MON] Read observed: 1e
# UVM_INFO fifo_base_sequence.sv(31) @ 375000: uvm_test_top.env.agent.sqr@@seq [SEQ] Generated item: wr_en=0 wr_data=5a rd_en=0
# UVM_INFO fifo_coverage.sv(50) @ 385000: uvm_test_top.env.agent.coverage [COV_SAMPLE] Sampling txn: wr_en=0 rd_en=0 full=1 empty=0
# UVM_INFO fifo_write_monitor.sv(37) @ 385000: uvm_test_top.env.agent.wr_mon [WRITE_MON] Write observed: 28
# UVM_INFO fifo_coverage.sv(50) @ 395000: uvm_test_top.env.agent.coverage [COV_SAMPLE] Sampling txn: wr_en=0 rd_en=0 full=1 empty=0
# UVM_INFO fifo_write_monitor.sv(37) @ 395000: uvm_test_top.env.agent.wr_mon [WRITE_MON] Write observed: 5a
# UVM_INFO fifo_coverage.sv(50) @ 395000: uvm_test_top.env.agent.coverage [COV_SAMPLE] Sampling txn: wr_en=0 rd_en=0 full=1 empty=0
# UVM_INFO fifo_read_monitor.sv(47) @ 395000: uvm_test_top.env.agent.rd_mon [READ_MON] Read observed: 1e
# UVM_INFO fifo_base_sequence.sv(31) @ 395000: uvm_test_top.env.agent.sqr@@seq [SEQ] Generated item: wr_en=1 wr_data=dd rd_en=0
# UVM_INFO fifo_coverage.sv(50) @ 405000: uvm_test_top.env.agent.coverage [COV_SAMPLE] Sampling txn: wr_en=0 rd_en=0 full=1 empty=0
# UVM_INFO fifo_write_monitor.sv(37) @ 405000: uvm_test_top.env.agent.wr_mon [WRITE_MON] Write observed: 5a
# UVM_INFO fifo_coverage.sv(50) @ 415000: uvm_test_top.env.agent.coverage [COV_SAMPLE] Sampling txn: wr_en=1 rd_en=0 full=1 empty=0
# UVM_ERROR fifo_scoreboard.sv(39) @ 415000: uvm_test_top.env.scoreboard [MODEL_OVERFLOW] Model overflow
# UVM_INFO fifo_write_monitor.sv(37) @ 415000: uvm_test_top.env.agent.wr_mon [WRITE_MON] Write observed: dd
# UVM_INFO fifo_coverage.sv(50) @ 415000: uvm_test_top.env.agent.coverage [COV_SAMPLE] Sampling txn: wr_en=0 rd_en=0 full=1 empty=0
# UVM_INFO fifo_read_monitor.sv(47) @ 415000: uvm_test_top.env.agent.rd_mon [READ_MON] Read observed: 1e
# UVM_INFO fifo_base_sequence.sv(31) @ 415000: uvm_test_top.env.agent.sqr@@seq [SEQ] Generated item: wr_en=1 wr_data=98 rd_en=0
# UVM_INFO fifo_coverage.sv(50) @ 425000: uvm_test_top.env.agent.coverage [COV_SAMPLE] Sampling txn: wr_en=0 rd_en=0 full=1 empty=0
# UVM_INFO fifo_write_monitor.sv(37) @ 425000: uvm_test_top.env.agent.wr_mon [WRITE_MON] Write observed: dd
# UVM_INFO fifo_coverage.sv(50) @ 435000: uvm_test_top.env.agent.coverage [COV_SAMPLE] Sampling txn: wr_en=1 rd_en=0 full=1 empty=0
# UVM_ERROR fifo_scoreboard.sv(39) @ 435000: uvm_test_top.env.scoreboard [MODEL_OVERFLOW] Model overflow
# UVM_INFO fifo_write_monitor.sv(37) @ 435000: uvm_test_top.env.agent.wr_mon [WRITE_MON] Write observed: 98
# UVM_INFO fifo_coverage.sv(50) @ 435000: uvm_test_top.env.agent.coverage [COV_SAMPLE] Sampling txn: wr_en=0 rd_en=0 full=1 empty=0
